clicker – Foundations of Data Science in R
…
sleep_long <- sleep_wide |>
  pivot_longer(cols = -Subject,
               names_to = "day",
               names_prefix = "day_",
               values_to = "reaction_time")

sleep_long

# A tibble: 180 × 3
   Subject day   reaction_time
     <dbl> <chr>         <dbl>
 1     308 0              250.
 2     308 1              259.
 3     308 2              251.
 4     308 3              321.
 5     308 4              357.
 6     308 5              415.
 7     308 6              382.
 8     308 7              290.
 9     308 8              431.
10     308 9              466.
# ℹ 170 more rows
…
