Foundations of Data Science in R – Variable Types
…
[1] FALSE  TRUE  TRUE

str_detect() in pipeline

str_detect() used in a filter() pipeline.

original data
unnested data
filtered unnested data

starwars |> 
  select(name, films) 

# A tibble: 87 × 2
   name               films    
   <chr>              <list>   
 1 Luke Skywalker     <chr [5]>
 2 C-3PO              <chr [6]>
 3 R2-D2              <chr [7]>
 4 Darth Vader        <chr [4]>
 5 Leia Organa        <chr [5]>
 6 Owen Lars          <chr [3]>
 7 Beru Whitesun Lars <chr [3]>
 8 R5-D4              <chr [1]>
 9 Biggs Darklighter  <chr [1]>
10 Obi-Wan Kenobi     <chr [6]>
# ℹ 77 more rows

starwars |> 
  select(name, films) |> 
  unnest_wider(films, names_sep = "")

# A tibble: 87 × 8
   name               films1 films2 films3 films4 films5 films6 films7
   <chr>              <chr>  <chr>  <chr>  <chr>  <chr>  <chr>  <chr> 
 1 Luke Skywalker     A New… The E… Retur… Reven… The F… <NA>   <NA>  
 2 C-3PO              A New… The E… Retur… The P… Attac… Reven… <NA>  
 3 R2-D2              A New… The E… Retur… The P… Attac… Reven… The F…
 4 Darth Vader        A New… The E… Retur… Reven… <NA>   <NA>   <NA>  
 5 Leia Organa        A New… The E… Retur… Reven… The F… <NA>   <NA>  
 6 Owen Lars          A New… Attac… Reven… <NA>   <NA>   <NA>   <NA>  
 7 Beru Whitesun Lars A New… Attac… Reven… <NA>   <NA>   <NA>   <NA>  
 8 R5-D4              A New… <NA>   <NA>   <NA>   <NA>   <NA>   <NA>  
 9 Biggs Darklighter  A New… <NA>   <NA>   <NA>   <NA>   <NA>   <NA>  
10 Obi-Wan Kenobi     A New… The E… Retur… The P… Attac… Reven… <NA>  
# ℹ 77 more rows
…
modeling (e.g., the baseline level in a linear regression)

Order matters

SurveyUSA poll from 2012 on views of the DREAM Act.

What is off about the data viz part of the report?

Data
Plot
Levels

openintro::dream

# A tibble: 910 × 2
   ideology     stance
   <fct>        <fct> 
 1 Conservative Yes   
 2 Conservative Yes   
 3 Conservative Yes   
 4 Conservative Yes   
 5 Conservative Yes   
 6 Conservative Yes   
 7 Conservative Yes   
 8 Conservative Yes   
 9 Conservative Yes   
10 Conservative Yes   
# ℹ 900 more rows
…
Factor and character variables

Data
Plot

starbucks |> 
  select(item, type, calories)

# A tibble: 77 × 3
   item                          type   calories
   <chr>                         <fct>     <int>
 1 "8-Grain Roll"                bakery      350
 2 "Apple Bran Muffin"           bakery      350
 3 "Apple Fritter"               bakery      420
 4 "Banana Nut Loaf"             bakery      490
 5 "Birthday Cake Mini Doughnut" bakery      130
 6 "Blueberry Oat Bar"           bakery      370
 7 "Blueberry Scone"             bakery      460
 8 "Bountiful Blueberry Muffin"  bakery      370
 9 "Butter Croissant "           bakery      310
10 "Cheese Danish"               bakery      420
# ℹ 67 more rows
…
Error in `mutate()`:
ℹ In argument: `type = fct_reorder(fiber, calories, .fun = "mean", .desc
  = TRUE)`.
Caused by error in `fct_reorder()`:
! `.f` must be a factor or character vector, not an integer vector.

Change character to factor

OG data
New factor

starbucks

# A tibble: 77 × 7
   item                       calories   fat  carb fiber protein type 
   <chr>                         <int> <dbl> <int> <int>   <int> <fct>
 1 "8-Grain Roll"                  350     8    67     5      10 bake…
 2 "Apple Bran Muffin"             350     9    64     7       6 bake…
 3 "Apple Fritter"                 420    20    59     0       5 bake…
 4 "Banana Nut Loaf"               490    19    75     4       7 bake…
 5 "Birthday Cake Mini Dough…      130     6    17     0       0 bake…
 6 "Blueberry Oat Bar"             370    14    47     5       6 bake…
 7 "Blueberry Scone"               460    22    61     2       7 bake…
 8 "Bountiful Blueberry Muff…      370    14    55     0       6 bake…
 9 "Butter Croissant "             310    18    32     0       5 bake…
10 "Cheese Danish"                 420    25    39     0       7 bake…
# ℹ 67 more rows

starbucks |> 
  mutate(item = as.factor(item))

# A tibble: 77 × 7
   item                       calories   fat  carb fiber protein type 
   <fct>                         <int> <dbl> <int> <int>   <int> <fct>
 1 "8-Grain Roll"                  350     8    67     5      10 bake…
 2 "Apple Bran Muffin"             350     9    64     7       6 bake…
 3 "Apple Fritter"                 420    20    59     0       5 bake…
 4 "Banana Nut Loaf"               490    19    75     4       7 bake…
 5 "Birthday Cake Mini Dough…      130     6    17     0       0 bake…
 6 "Blueberry Oat Bar"             370    14    47     5       6 bake…
 7 "Blueberry Scone"               460    22    61     2       7 bake…
 8 "Bountiful Blueberry Muff…      370    14    55     0       6 bake…
 9 "Butter Croissant "             310    18    32     0       5 bake…
10 "Cheese Danish"                 420    25    39     0       7 bake…
# ℹ 67 more rows
…
NYC flights

Creating a date object from variables.

flightsWK <- flights |>  
   mutate(ymdday = ymd(paste(year, month,day, sep="-"))) |> 
   mutate(weekdy = wday(ymdday, label=TRUE), 
          whichweek = week(ymdday)) 

flightsWK |>  select(year, month, day, ymdday, weekdy, whichweek, 
                     dep_time, arr_time, air_time) 

# A tibble: 336,776 × 9
    year month   day ymdday     weekdy whichweek dep_time arr_time
   <int> <int> <int> <date>     <ord>      <dbl>    <int>    <int>
 1  2013     1     1 2013-01-01 Tue            1      517      830
 2  2013     1     1 2013-01-01 Tue            1      533      850
 3  2013     1     1 2013-01-01 Tue            1      542      923
 4  2013     1     1 2013-01-01 Tue            1      544     1004
 5  2013     1     1 2013-01-01 Tue            1      554      812
 6  2013     1     1 2013-01-01 Tue            1      554      740
 7  2013     1     1 2013-01-01 Tue            1      555      913
 8  2013     1     1 2013-01-01 Tue            1      557      709
 9  2013     1     1 2013-01-01 Tue            1      557      838
10  2013     1     1 2013-01-01 Tue            1      558      753
# ℹ 336,766 more rows
# ℹ 1 more variable: air_time <dbl>
