Iterations – Foundations of Data Science in R
…
cumprod(numbers)

[1]   5  20  40  40 120

Cummulative rates

map(c(1:runs), run_func, 
    steps = decision_steps,
    alpha = 0.5) |> 
  list_rbind() |> 
  group_by(run_number) |> 
  mutate(compound_return = cumprod(return))

# A tibble: 120 × 4
# Groups:   run_number [10]
    step return run_number compound_return
   <int>  <dbl> <fct>                <dbl>
 1     1  0.984 1                    0.984
 2     2  1.01  1                    0.990
 3     3  1.04  1                    1.03 
 4     4  0.987 1                    1.02 
 5     5  1.04  1                    1.05 
 6     6  1.04  1                    1.09 
 7     7  0.994 1                    1.09 
 8     8  1.01  1                    1.10 
 9     9  1.01  1                    1.12 
10    10  0.994 1                    1.11 
# ℹ 110 more rows
…
