Web Scraping – Foundations of Data Science in R
…
tsl_opinion_titles

# A tibble: 500 × 4
   title                           authors date                first_p
   <chr>                           <chr>   <dttm>              <chr>  
 1 Stop buying your books          Sarah … 2025-04-04 08:03:00 from b…
 2 The case for fleeing the count… Alex B… 2025-04-04 07:27:00 when t…
 3 Tolerate thy neighbor           Parker… 2025-04-04 07:22:00 it’s s…
 4 Confronting furry hate          Xavier… 2025-04-04 07:16:00 furrie…
 5 Shame on the governor: Gavin N… Akshay… 2025-03-28 06:56:00 gavin …
 6 Accessibility at the 5Cs requi… Zena A… 2025-03-28 06:42:00 althou…
 7 Your spring break destination … Nicole… 2025-03-15 04:44:00 spring…
 8 Pomona College’s Merritt Field… Katie … 2025-03-15 03:03:00 with l…
 9 Seminars should be tech-free s… Elias … 2025-03-14 09:15:00 we hav…
10 The bitter truth to the bitter… Daniel… 2025-03-14 09:13:00 have y…
# ℹ 490 more rows
…
