Foundations of Data Science in R – Data Wrangling
…
distinct()

mutate()

summarize()

sample_n()

(out of) NYC, flights data (2013)

library(nycflights13)
flights

# A tibble: 336,776 × 19
    year month   day dep_time sched_dep_time dep_delay arr_time sched_arr_time
   <int> <int> <int>    <int>          <int>     <dbl>    <int>          <int>
 1  2013     1     1      517            515         2      830            819
 2  2013     1     1      533            529         4      850            830
 3  2013     1     1      542            540         2      923            850
 4  2013     1     1      544            545        -1     1004           1022
 5  2013     1     1      554            600        -6      812            837
 6  2013     1     1      554            558        -4      740            728
 7  2013     1     1      555            600        -5      913            854
 8  2013     1     1      557            600        -3      709            723
 9  2013     1     1      557            600        -3      838            846
10  2013     1     1      558            600        -2      753            745
# ℹ 336,766 more rows
# ℹ 11 more variables: arr_delay <dbl>, carrier <chr>, flight <int>,
#   tailnum <chr>, origin <chr>, dest <chr>, air_time <dbl>, distance <dbl>,
#   hour <dbl>, minute <dbl>, time_hour <dttm>

filter()

Allows you to select a subset of the rows of a data frame. The first argument is the name of the data frame, the following arguments are the filters that you’d like to apply

For all flights on January 1st:

filter(flights, month == 1, day == 1)

# A tibble: 842 × 19
    year month   day dep_time sched_dep_time dep_delay arr_time sched_arr_time
   <int> <int> <int>    <int>          <int>     <dbl>    <int>          <int>
 1  2013     1     1      517            515         2      830            819
 2  2013     1     1      533            529         4      850            830
 3  2013     1     1      542            540         2      923            850
 4  2013     1     1      544            545        -1     1004           1022
 5  2013     1     1      554            600        -6      812            837
 6  2013     1     1      554            558        -4      740            728
 7  2013     1     1      555            600        -5      913            854
 8  2013     1     1      557            600        -3      709            723
 9  2013     1     1      557            600        -3      838            846
10  2013     1     1      558            600        -2      753            745
# ℹ 832 more rows
# ℹ 11 more variables: arr_delay <dbl>, carrier <chr>, flight <int>,
#   tailnum <chr>, origin <chr>, dest <chr>, air_time <dbl>, distance <dbl>,
#   hour <dbl>, minute <dbl>, time_hour <dttm>

Constructing filters

Filters are constructed of logical operators: <, >, <=, >=, ==, != (and some others).

Adding them one by one to filter() is akin to saying “this AND that”. To say “this OR that OR both”, use |.

filter(flights, month == 1 | month == 2)

# A tibble: 51,955 × 19
    year month   day dep_time sched_dep_time dep_delay arr_time sched_arr_time
   <int> <int> <int>    <int>          <int>     <dbl>    <int>          <int>
 1  2013     1     1      517            515         2      830            819
 2  2013     1     1      533            529         4      850            830
 3  2013     1     1      542            540         2      923            850
 4  2013     1     1      544            545        -1     1004           1022
 5  2013     1     1      554            600        -6      812            837
 6  2013     1     1      554            558        -4      740            728
 7  2013     1     1      555            600        -5      913            854
 8  2013     1     1      557            600        -3      709            723
 9  2013     1     1      557            600        -3      838            846
10  2013     1     1      558            600        -2      753            745
# ℹ 51,945 more rows
# ℹ 11 more variables: arr_delay <dbl>, carrier <chr>, flight <int>,
#   tailnum <chr>, origin <chr>, dest <chr>, air_time <dbl>, distance <dbl>,
#   hour <dbl>, minute <dbl>, time_hour <dttm>
…
Flights with flight times more than 2000 miles or that were in the air more than 5 hours.

filter(flights, month == 3, day == 17)
filter(flights, dest == "ORD")
filter(flights, dest == "ORD", carrier == "UA")
filter(flights, distance > 2000 | air_time > 5*60)

arrange()

arrange() reorders the rows: It takes a data frame, and a set of column names (or more complicated expressions) to order by. If you provide more than one column name, each additional column will be used to break ties in the values of preceding columns:

arrange(flights, year, month, day)

# A tibble: 336,776 × 19
    year month   day dep_time sched_dep_time dep_delay arr_time sched_arr_time
   <int> <int> <int>    <int>          <int>     <dbl>    <int>          <int>
 1  2013     1     1      517            515         2      830            819
 2  2013     1     1      533            529         4      850            830
 3  2013     1     1      542            540         2      923            850
 4  2013     1     1      544            545        -1     1004           1022
 5  2013     1     1      554            600        -6      812            837
 6  2013     1     1      554            558        -4      740            728
 7  2013     1     1      555            600        -5      913            854
 8  2013     1     1      557            600        -3      709            723
 9  2013     1     1      557            600        -3      838            846
10  2013     1     1      558            600        -2      753            745
# ℹ 336,766 more rows
# ℹ 11 more variables: arr_delay <dbl>, carrier <chr>, flight <int>,
#   tailnum <chr>, origin <chr>, dest <chr>, air_time <dbl>, distance <dbl>,
#   hour <dbl>, minute <dbl>, time_hour <dttm>

Use desc() to sort in descending order.

arrange(flights, desc(arr_delay))

# A tibble: 336,776 × 19
    year month   day dep_time sched_dep_time dep_delay arr_time sched_arr_time
   <int> <int> <int>    <int>          <int>     <dbl>    <int>          <int>
 1  2013     1     9      641            900      1301     1242           1530
 2  2013     6    15     1432           1935      1137     1607           2120
 3  2013     1    10     1121           1635      1126     1239           1810
 4  2013     9    20     1139           1845      1014     1457           2210
 5  2013     7    22      845           1600      1005     1044           1815
 6  2013     4    10     1100           1900       960     1342           2211
 7  2013     3    17     2321            810       911      135           1020
 8  2013     7    22     2257            759       898      121           1026
 9  2013    12     5      756           1700       896     1058           2020
10  2013     5     3     1133           2055       878     1250           2215
# ℹ 336,766 more rows
# ℹ 11 more variables: arr_delay <dbl>, carrier <chr>, flight <int>,
#   tailnum <chr>, origin <chr>, dest <chr>, air_time <dbl>, distance <dbl>,
#   hour <dbl>, minute <dbl>, time_hour <dttm>

select()

Often you work with large datasets with many columns where only a few are actually of interest to you. select() allows you to rapidly zoom in on a useful subset using operations that usually only work on numeric variable positions:

select(flights, year, month, day)

# A tibble: 336,776 × 3
    year month   day
   <int> <int> <int>
 1  2013     1     1
 2  2013     1     1
 3  2013     1     1
 4  2013     1     1
 5  2013     1     1
 6  2013     1     1
 7  2013     1     1
 8  2013     1     1
 9  2013     1     1
10  2013     1     1
# ℹ 336,766 more rows

You can exclude columns using - and specify a range using :.

select(flights, -(year:day))

# A tibble: 336,776 × 16
   dep_time sched_dep_time dep_delay arr_time sched_arr_time arr_delay carrier
      <int>          <int>     <dbl>    <int>          <int>     <dbl> <chr>  
 1      517            515         2      830            819        11 UA     
 2      533            529         4      850            830        20 UA     
 3      542            540         2      923            850        33 AA     
 4      544            545        -1     1004           1022       -18 B6     
 5      554            600        -6      812            837       -25 DL     
 6      554            558        -4      740            728        12 UA     
 7      555            600        -5      913            854        19 B6     
 8      557            600        -3      709            723       -14 EV     
 9      557            600        -3      838            846        -8 B6     
10      558            600        -2      753            745         8 AA     
# ℹ 336,766 more rows
# ℹ 9 more variables: flight <int>, tailnum <chr>, origin <chr>, dest <chr>,
#   air_time <dbl>, distance <dbl>, hour <dbl>, minute <dbl>, time_hour <dttm>

distinct()

A common use of select() is to find out which values a set of variables takes. This is particularly useful in conjunction with the distinct() verb which only returns the unique values in a table.

What do the following data correspond to?

distinct(select(flights, origin, dest))

# A tibble: 224 × 2
   origin dest 
   <chr>  <chr>
 1 EWR    IAH  
 2 LGA    IAH  
 3 JFK    MIA  
 4 JFK    BQN  
 5 LGA    ATL  
 6 EWR    ORD  
 7 EWR    FLL  
 8 LGA    IAD  
 9 JFK    MCO  
10 LGA    ORD  
# ℹ 214 more rows

mutate()

As well as selecting from the set of existing columns, it’s often useful to add new columns that are functions of existing columns. This is the job of mutate():

select(mutate(flights, gain = dep_delay - arr_delay), 
       flight, dep_delay, arr_delay, gain)

# A tibble: 336,776 × 4
   flight dep_delay arr_delay  gain
    <int>     <dbl>     <dbl> <dbl>
 1   1545         2        11    -9
 2   1714         4        20   -16
 3   1141         2        33   -31
 4    725        -1       -18    17
 5    461        -6       -25    19
 6   1696        -4        12   -16
 7    507        -5        19   -24
 8   5708        -3       -14    11
 9     79        -3        -8     5
10    301        -2         8   -10
# ℹ 336,766 more rows
…
summarize() and sample_n() are even more powerful when combined with the idea of “group by”, repeating the operation separately on groups of observations within the dataset.

The group_by() function describes how to break a dataset down into groups of rows.

group_by()

Find the fastest airplanes in the bunch, measured as the average speed per airplane.

by_tailnum <- group_by(speed_data, tailnum)
avg_speed <- summarize(by_tailnum, 
                       count = n(), 
                       avg_speed = mean(speed, na.rm = TRUE))
arrange(avg_speed, desc(avg_speed))

# A tibble: 4,044 × 3
   tailnum count avg_speed
   <chr>   <int>     <dbl>
 1 N228UA      1      501.
 2 N315AS      1      499.
 3 N654UA      1      499.
 4 N819AW      1      490.
 5 N382HA     26      486.
 6 N388HA     36      484.
 7 N391HA     21      484.
 8 N777UA      1      483.
 9 N385HA     28      483.
10 N392HA     13      482.
# ℹ 4,034 more rows
…
Flights

No pipe
Pipe

flights2 <- mutate(flights, speed = distance/(air_time/60))
tail_speed <- select(flights2, tailnum, speed)
tail_speed_grp <- group_by(tail_speed, tailnum)
tail_ave <- summarize(tail_speed_grp, number = n(),
                      avg_speed = mean(speed, na.rm = TRUE))
arrange(tail_ave, desc(avg_speed))

# A tibble: 4,044 × 3
   tailnum number avg_speed
   <chr>    <int>     <dbl>
 1 N228UA       1      501.
 2 N315AS       1      499.
 3 N654UA       1      499.
 4 N819AW       1      490.
 5 N382HA      26      486.
 6 N388HA      36      484.
 7 N391HA      21      484.
 8 N777UA       1      483.
 9 N385HA      28      483.
10 N392HA      13      482.
# ℹ 4,034 more rows

flights |> 
  mutate(speed = distance / (air_time/60)) |> 
  select(tailnum, speed) |> 
  group_by(tailnum) |>  
  summarize(number = n(), 
            avg_speed = mean(speed, na.rm = TRUE)) |> 
  arrange(desc(avg_speed))

# A tibble: 4,044 × 3
   tailnum number avg_speed
   <chr>    <int>     <dbl>
 1 N228UA       1      501.
 2 N315AS       1      499.
 3 N654UA       1      499.
 4 N819AW       1      490.
 5 N382HA      26      486.
 6 N388HA      36      484.
 7 N391HA      21      484.
 8 N777UA       1      483.
 9 N385HA      28      483.
10 N392HA      13      482.
# ℹ 4,034 more rows
…
