Permutation Tests – Foundations of Data Science in R
…
High School & Beyond survey

Data: 200 randomly selected observations from the High School and Beyond survey, conducted on high school seniors by the National Center for Educational Statistics.

Research Question: in the population, do private school kids have a higher math score on average?

\[H_0: \mu_{private} = \mu_{public}\] \[H_A: \mu_{private} > \mu_{public}\]

\(\mu\) is the average math score in the population.

library(openintro)
hsb2

# A tibble: 200 × 11
      id gender race      ses   schtyp prog   read write  math science
   <int> <chr>  <chr>     <fct> <fct>  <fct> <int> <int> <int>   <int>
 1    70 male   white     low   public gene…    57    52    41      47
 2   121 female white     midd… public voca…    68    59    53      63
 3    86 male   white     high  public gene…    44    33    54      58
 4   141 male   white     high  public voca…    63    44    47      53
 5   172 male   white     midd… public acad…    47    52    57      53
 6   113 male   white     midd… public acad…    44    52    51      63
 7    50 male   african … midd… public gene…    50    59    42      53
 8    11 male   hispanic  midd… public acad…    34    46    45      39
 9    84 male   white     midd… public gene…    63    57    54      58
10    48 male   african … midd… public acad…    57    55    52      50
# ℹ 190 more rows
# ℹ 1 more variable: socst <int>
…
