Foundations of Data Science in R – Regular Expressions
…
str_extract("Episode 2: The pie whisperer. (4 August 2015)", ...)

Extracting air date

str_extract("Episode 2: The pie whisperer. (4 August 2015)", 
            "(?<=\\().+(?=\\))")

[1] "4 August 2015"

Wrangling the episode info

Currently:

# A tibble: 270 × 1
   episode                                        
   <chr>                                          
 1 Episode 1: It's not your fault. (18 March 2021)
 2 Episode 1: It's not your fault. (18 March 2021)
 3 Episode 1: It's not your fault. (18 March 2021)
 4 Episode 1: It's not your fault. (18 March 2021)
 5 Episode 1: It's not your fault. (18 March 2021)
 6 Episode 1: It's not your fault. (18 March 2021)
 7 Episode 1: It's not your fault. (18 March 2021)
 8 Episode 1: It's not your fault. (18 March 2021)
 9 Episode 1: It's not your fault. (18 March 2021)
10 Episode 1: It's not your fault. (18 March 2021)
# ℹ 260 more rows

Wrangling the episode info

One option:

results |>
  select(episode) |>
  mutate(episode_name = str_extract(episode, "(?<=: ).+(?=\\.)"),
         air_date = str_extract(episode, "(?<=\\().+(?=\\))"),
         episode = str_extract(episode, "\\d+")) |> 
  mutate(air_date2 = dmy(air_date))

# A tibble: 270 × 4
   episode episode_name        air_date      air_date2 
   <chr>   <chr>               <chr>         <date>    
 1 1       It's not your fault 18 March 2021 2021-03-18
 2 1       It's not your fault 18 March 2021 2021-03-18
 3 1       It's not your fault 18 March 2021 2021-03-18
 4 1       It's not your fault 18 March 2021 2021-03-18
 5 1       It's not your fault 18 March 2021 2021-03-18
 6 1       It's not your fault 18 March 2021 2021-03-18
 7 1       It's not your fault 18 March 2021 2021-03-18
 8 1       It's not your fault 18 March 2021 2021-03-18
 9 1       It's not your fault 18 March 2021 2021-03-18
10 1       It's not your fault 18 March 2021 2021-03-18
# ℹ 260 more rows
…
Another option:

results |>
  separate_wider_regex(episode, 
                       patterns = c(".+ ", 
                                    episode = "\\d+", 
                                    ": ", 
                                    episode_name = ".+", 
                                    "\\. \\(", 
                                    air_date = ".+", 
                                    "\\)")) |> 
  mutate(air_date2 = dmy(air_date))

# A tibble: 270 × 4
   episode episode_name        air_date      air_date2 
   <chr>   <chr>               <chr>         <date>    
 1 1       It's not your fault 18 March 2021 2021-03-18
 2 1       It's not your fault 18 March 2021 2021-03-18
 3 1       It's not your fault 18 March 2021 2021-03-18
 4 1       It's not your fault 18 March 2021 2021-03-18
 5 1       It's not your fault 18 March 2021 2021-03-18
 6 1       It's not your fault 18 March 2021 2021-03-18
 7 1       It's not your fault 18 March 2021 2021-03-18
 8 1       It's not your fault 18 March 2021 2021-03-18
 9 1       It's not your fault 18 March 2021 2021-03-18
10 1       It's not your fault 18 March 2021 2021-03-18
# ℹ 260 more rows
