Foundations of Data Science in R – Pivoting and Joining
…
The by argument

data frames
travel map
join

flights |> 
   select(origin, dest) |> 
   distinct() |> 
   arrange(dest)

# A tibble: 224 × 2
   origin dest 
   <chr>  <chr>
 1 JFK    ABQ  
 2 JFK    ACK  
 3 EWR    ALB  
 4 EWR    ANC  
 5 LGA    ATL  
 6 JFK    ATL  
 7 EWR    ATL  
 8 JFK    AUS  
 9 EWR    AUS  
10 EWR    AVL  
# ℹ 214 more rows

airports

# A tibble: 1,458 × 8
   faa   name       lat    lon
   <chr> <chr>    <dbl>  <dbl>
 1 04G   Lansdow…  41.1  -80.6
 2 06A   Moton F…  32.5  -85.7
 3 06C   Schaumb…  42.0  -88.1
 4 06N   Randall…  41.4  -74.4
 5 09J   Jekyll …  31.1  -81.4
 6 0A9   Elizabe…  36.4  -82.2
 7 0G6   William…  41.5  -84.5
 8 0G7   Finger …  42.9  -76.8
 9 0P2   Shoestr…  39.8  -76.6
10 0S9   Jeffers…  48.1 -123. 
# ℹ 1,448 more rows
# ℹ 4 more variables:
#   alt <dbl>, tz <dbl>,
#   dst <chr>, tzone <chr>
…
image credit: https://commons.wikimedia.org/wiki/File:PIA_Route_Map.PNG, Sox23 at the English-language Wikipedia

flights |> 
   select(origin, dest) |> 
   distinct() |> 
   arrange(dest) |> 
   left_join(airports, by = c("dest" = "faa"))

# A tibble: 224 × 9
   origin dest  name                lat    lon   alt    tz dst   tzone
   <chr>  <chr> <chr>             <dbl>  <dbl> <dbl> <dbl> <chr> <chr>
 1 JFK    ABQ   Albuquerque Inte…  35.0 -107.   5355    -7 A     Amer…
 2 JFK    ACK   Nantucket Mem      41.3  -70.1    48    -5 A     Amer…
 3 EWR    ALB   Albany Intl        42.7  -73.8   285    -5 A     Amer…
 4 EWR    ANC   Ted Stevens Anch…  61.2 -150.    152    -9 A     Amer…
 5 LGA    ATL   Hartsfield Jacks…  33.6  -84.4  1026    -5 A     Amer…
 6 JFK    ATL   Hartsfield Jacks…  33.6  -84.4  1026    -5 A     Amer…
 7 EWR    ATL   Hartsfield Jacks…  33.6  -84.4  1026    -5 A     Amer…
 8 JFK    AUS   Austin Bergstrom…  30.2  -97.7   542    -6 A     Amer…
 9 EWR    AUS   Austin Bergstrom…  30.2  -97.7   542    -6 A     Amer…
10 EWR    AVL   Asheville Region…  35.4  -82.5  2165    -5 A     Amer…
# ℹ 214 more rows

Practice litF and GDP from Gapminder.

OG data
left
right
inner
full

litF

# A tibble: 571 × 3
   country     year  litRateF
   <chr>       <chr>    <dbl>
 1 Afghanistan 1979      4.99
 2 Afghanistan 2011     13   
 3 Albania     2001     98.3 
 4 Albania     2008     94.7 
 5 Albania     2011     95.7 
 6 Algeria     1987     35.8 
 7 Algeria     2002     60.1 
 8 Algeria     2006     63.9 
 9 Angola      2001     54.2 
10 Angola      2011     58.6 
# ℹ 561 more rows

GDP

# A tibble: 7,988 × 3
   country year    gdp
   <chr>   <chr> <dbl>
 1 Albania 1980  1061.
 2 Albania 1981  1100.
 3 Albania 1982  1111.
 4 Albania 1983  1101.
 5 Albania 1984  1065.
 6 Albania 1985  1060.
 7 Albania 1986  1092.
 8 Albania 1987  1054.
 9 Albania 1988  1014.
10 Albania 1989  1092.
# ℹ 7,978 more rows

left_join(litF, GDP, by=c("country" = "country", "year" = "year"))

# A tibble: 571 × 4
   country     year  litRateF   gdp
   <chr>       <chr>    <dbl> <dbl>
 1 Afghanistan 1979      4.99   NA 
 2 Afghanistan 2011     13      NA 
 3 Albania     2001     98.3  1282.
 4 Albania     2008     94.7  1804.
 5 Albania     2011     95.7  1966.
 6 Algeria     1987     35.8  1902.
 7 Algeria     2002     60.1  1872.
 8 Algeria     2006     63.9  2125.
 9 Angola      2001     54.2   298.
10 Angola      2011     58.6   630.
# ℹ 561 more rows

right_join(litF, GDP, by=c("country", "year"))

# A tibble: 7,988 × 4
   country             year  litRateF   gdp
   <chr>               <chr>    <dbl> <dbl>
 1 Albania             2001      98.3 1282.
 2 Albania             2008      94.7 1804.
 3 Albania             2011      95.7 1966.
 4 Algeria             1987      35.8 1902.
 5 Algeria             2002      60.1 1872.
 6 Algeria             2006      63.9 2125.
 7 Angola              2001      54.2  298.
 8 Angola              2011      58.6  630.
 9 Antigua and Barbuda 2001      99.4 9640.
10 Antigua and Barbuda 2011      99.4 9978.
# ℹ 7,978 more rows

inner_join(litF, GDP, by=c("country", "year"))

# A tibble: 505 × 4
   country             year  litRateF   gdp
   <chr>               <chr>    <dbl> <dbl>
 1 Albania             2001      98.3 1282.
 2 Albania             2008      94.7 1804.
 3 Albania             2011      95.7 1966.
 4 Algeria             1987      35.8 1902.
 5 Algeria             2002      60.1 1872.
 6 Algeria             2006      63.9 2125.
 7 Angola              2001      54.2  298.
 8 Angola              2011      58.6  630.
 9 Antigua and Barbuda 2001      99.4 9640.
10 Antigua and Barbuda 2011      99.4 9978.
# ℹ 495 more rows

full_join(litF, GDP, by=c("country", "year"))

# A tibble: 8,054 × 4
   country     year  litRateF   gdp
   <chr>       <chr>    <dbl> <dbl>
 1 Afghanistan 1979      4.99   NA 
 2 Afghanistan 2011     13      NA 
 3 Albania     2001     98.3  1282.
 4 Albania     2008     94.7  1804.
 5 Albania     2011     95.7  1966.
 6 Algeria     1987     35.8  1902.
 7 Algeria     2002     60.1  1872.
 8 Algeria     2006     63.9  2125.
 9 Angola      2001     54.2   298.
10 Angola      2011     58.6   630.
# ℹ 8,044 more rows
…
