Functions + Iteration – Foundations of Data Science in R
…
[1] FALSE  TRUE FALSE

Agenda 3/5/25

The map() function

Iterating functions

fastfood dataset from openintro

library(openintro)
fastfood

# A tibble: 515 × 17
   restaurant item        calories cal_fat total_fat sat_fat trans_fat
   <chr>      <chr>          <dbl>   <dbl>     <dbl>   <dbl>     <dbl>
 1 Mcdonalds  Artisan Gr…      380      60         7       2       0  
 2 Mcdonalds  Single Bac…      840     410        45      17       1.5
 3 Mcdonalds  Double Bac…     1130     600        67      27       3  
 4 Mcdonalds  Grilled Ba…      750     280        31      10       0.5
 5 Mcdonalds  Crispy Bac…      920     410        45      12       0.5
 6 Mcdonalds  Big Mac          540     250        28      10       1  
 7 Mcdonalds  Cheeseburg…      300     100        12       5       0.5
 8 Mcdonalds  Classic Ch…      510     210        24       4       0  
 9 Mcdonalds  Double Che…      430     190        21      11       1  
10 Mcdonalds  Double Qua…      770     400        45      21       2.5
# ℹ 505 more rows
# ℹ 10 more variables: cholesterol <dbl>, sodium <dbl>,
#   total_carb <dbl>, fiber <dbl>, sugar <dbl>, protein <dbl>,
#   vit_a <dbl>, vit_c <dbl>, calcium <dbl>, salad <chr>
…
